[
    {
        "title": "Caramel Frappuccino",
        "description": "Caramel syrup with coffee, milk, and whipped cream",
        "price": 3.95,
        "image": "https://images.pexels.com/photos/214333/pexels-photo-214333.jpeg?auto=compress&cs=tinysrgb&w=1260&h=750&dpr=1",
        "category": "coffee"
    },
    {
        "title": "Chocolate Frappuccino",
        "description": "Caramel syrup with coffee, milk, and whipped cream",
        "price": 4.51,
        "image": "https://img.freepik.com/free-photo/close-up-tasty-beverage-with-cream_23-2148349609.jpg?w=1380&t=st=1681538050~exp=1681538650~hmac=6dc8bbf8cd4e8af6ab4f856cd62dfef70e0beb6d57e0f749cffd5d1b7a54589b",
        "category": "coffee"
    },
    {
        "title": "Coffee Late Frappuccino",
        "description": "Caramel syrup with coffee, milk, and whipped cream",
        "price": 3.95,
        "image": "https://images.pexels.com/photos/13294518/pexels-photo-13294518.jpeg?auto=compress&cs=tinysrgb&w=1260&h=750&dpr=1",
        "category": "coffee"
    },
    {
        "title": "Peppermint Macchiato",
        "description": "Caramel syrup with coffee, milk, and whipped cream",
        "price": 3.95,
        "image": "https://images.pexels.com/photos/2691360/pexels-photo-2691360.jpeg?auto=compress&cs=tinysrgb&w=1260&h=750&dpr=1",
        "category": "coffee"
    }
]
